{
  "Students": [
    {
      "id": 1,
      "name": "Le Anh Tho",
      "classid": "11A7",
      "phoneNumber": "09867873",
      "email": "anhtho@gmail.com",
      "address": "Dong Da",
      "tbmEnglish": "9.0"
    },
    {
      "id": 2,
      "name": "Tam Kiet",
      "classid": "1A7",
      "phoneNumber": "728219",
      "email": "khong co",
      "address": "Truong Dinh",
      "tbmEnglish": "9.9"
    },
    {
      "id": 3,
      "name": "Mai Duc Phat",
      "classid": "11A01",
      "phoneNumber": "87587985645",
      "email": "jhbskjksj.com",
      "address": "Ajgekjrf",
      "tbmEnglish": "7.8"
    },
    {
      "id": 5,
      "name": "Tong Dinh Minh Duc",
      "classid": "11a01",
      "phoneNumber": "0986578765",
      "email": "minhduc@abc.com",
      "address": "Tay Ho",
      "tbmEnglish": "9.5"
    },
    {
      "id": 6,
      "name": "",
      "classid": "",
      "phoneNumber": "",
      "email": "",
      "address": "",
      "tbmEnglish": ""
    }
  ]
}